
{
  "header": {
    "reportVersion": 1,
    "event": "Allocation failed - JavaScript heap out of memory",
    "trigger": "FatalError",
    "filename": "report.20191031.171848.31008.0.001.json",
    "dumpEventTime": "2019-10-31T17:18:48Z",
    "dumpEventTimeStamp": "1572513528755",
    "processId": 31008,
    "cwd": "C:\\hbsfms200",
    "commandLine": [
      "C:\\Program Files\\nodejs\\node.exe",
      ".\\app.js"
    ],
    "nodejsVersion": "v13.0.1",
    "wordSize": 64,
    "arch": "x64",
    "platform": "win32",
    "componentVersions": {
      "node": "13.0.1",
      "v8": "7.8.279.17-node.14",
      "uv": "1.33.1",
      "zlib": "1.2.11",
      "brotli": "1.0.7",
      "ares": "1.15.0",
      "modules": "79",
      "nghttp2": "1.39.2",
      "napi": "5",
      "llhttp": "1.1.4",
      "openssl": "1.1.1d",
      "cldr": "35.1",
      "icu": "64.2",
      "tz": "2019a",
      "unicode": "12.1"
    },
    "release": {
      "name": "node",
      "headersUrl": "https://nodejs.org/download/release/v13.0.1/node-v13.0.1-headers.tar.gz",
      "sourceUrl": "https://nodejs.org/download/release/v13.0.1/node-v13.0.1.tar.gz",
      "libUrl": "https://nodejs.org/download/release/v13.0.1/win-x64/node.lib"
    },
    "osName": "Windows_NT",
    "osRelease": "10.0.18362",
    "osVersion": "Windows 10 Home Single Language",
    "osMachine": "x86_64",
    "cpus": [
      {
        "model": "Intel(R) Core(TM) i5-8250U CPU @ 1.60GHz",
        "speed": 1800,
        "user": 9513921,
        "nice": 0,
        "sys": 9466421,
        "idle": 119699625,
        "irq": 2955156
      },
      {
        "model": "Intel(R) Core(TM) i5-8250U CPU @ 1.60GHz",
        "speed": 1800,
        "user": 4237562,
        "nice": 0,
        "sys": 4012687,
        "idle": 130429296,
        "irq": 140625
      },
      {
        "model": "Intel(R) Core(TM) i5-8250U CPU @ 1.60GHz",
        "speed": 1800,
        "user": 13215875,
        "nice": 0,
        "sys": 5000734,
        "idle": 120462937,
        "irq": 142500
      },
      {
        "model": "Intel(R) Core(TM) i5-8250U CPU @ 1.60GHz",
        "speed": 1800,
        "user": 6275218,
        "nice": 0,
        "sys": 2640281,
        "idle": 129764031,
        "irq": 82078
      },
      {
        "model": "Intel(R) Core(TM) i5-8250U CPU @ 1.60GHz",
        "speed": 1800,
        "user": 11668734,
        "nice": 0,
        "sys": 3958906,
        "idle": 123051890,
        "irq": 134812
      },
      {
        "model": "Intel(R) Core(TM) i5-8250U CPU @ 1.60GHz",
        "speed": 1800,
        "user": 4911796,
        "nice": 0,
        "sys": 2724984,
        "idle": 131042750,
        "irq": 56265
      },
      {
        "model": "Intel(R) Core(TM) i5-8250U CPU @ 1.60GHz",
        "speed": 1800,
        "user": 9448156,
        "nice": 0,
        "sys": 2893703,
        "idle": 126337671,
        "irq": 80703
      },
      {
        "model": "Intel(R) Core(TM) i5-8250U CPU @ 1.60GHz",
        "speed": 1800,
        "user": 9965375,
        "nice": 0,
        "sys": 3716296,
        "idle": 124997859,
        "irq": 82984
      }
    ],
    "networkInterfaces": [
      {
        "name": "Wi-Fi 2",
        "internal": false,
        "mac": "d0:c5:d3:23:b1:f3",
        "address": "fe80::5a9:ac49:ef7f:3ddc",
        "netmask": "ffff:ffff:ffff:ffff::",
        "family": "IPv6",
        "scopeid": 17
      },
      {
        "name": "Wi-Fi 2",
        "internal": false,
        "mac": "d0:c5:d3:23:b1:f3",
        "address": "192.168.0.155",
        "netmask": "255.255.255.0",
        "family": "IPv4"
      },
      {
        "name": "Loopback Pseudo-Interface 1",
        "internal": true,
        "mac": "00:00:00:00:00:00",
        "address": "::1",
        "netmask": "ffff:ffff:ffff:ffff:ffff:ffff:ffff:ffff",
        "family": "IPv6",
        "scopeid": 0
      },
      {
        "name": "Loopback Pseudo-Interface 1",
        "internal": true,
        "mac": "00:00:00:00:00:00",
        "address": "127.0.0.1",
        "netmask": "255.0.0.0",
        "family": "IPv4"
      }
    ],
    "host": 